simple.vcd
$date
	Tue Oct  5 09:25:07 2010
$end
$version
	ModelSim Version 6.5c
$end
$timescale
	1ns
$end
$scope module tb $end
$var wire 1 ! clock $end
$var wire 1 " reset $end
$var wire 1 # x $end
$var wire 1 $ y [3] $end
$var wire 1 % y [2] $end
$var wire 1 & y [1] $end
$var wire 1 ' y [0] $end
$var wire 1 ( z [31] $end
$var wire 1 ) z [30] $end
$var wire 1 * z [29] $end
$var wire 1 + z [28] $end
$var wire 1 , z [27] $end
$var wire 1 - z [26] $end
$var wire 1 . z [25] $end
$var wire 1 / z [24] $end
$var wire 1 0 z [23] $end
$var wire 1 1 z [22] $end
$var wire 1 2 z [21] $end
$var wire 1 3 z [20] $end
$var wire 1 4 z [19] $end
$var wire 1 5 z [18] $end
$var wire 1 6 z [17] $end
$var wire 1 7 z [16] $end
$var wire 1 8 z [15] $end
$var wire 1 9 z [14] $end
$var wire 1 : z [13] $end
$var wire 1 ; z [12] $end
$var wire 1 < z [11] $end
$var wire 1 = z [10] $end
$var wire 1 > z [9] $end
$var wire 1 ? z [8] $end
$var wire 1 @ z [7] $end
$var wire 1 A z [6] $end
$var wire 1 B z [5] $end
$var wire 1 C z [4] $end
$var wire 1 D z [3] $end
$var wire 1 E z [2] $end
$var wire 1 F z [1] $end
$var wire 1 G z [0] $end
$upscope $end
$enddefinitions $end
#0
$dumpvars
0!
1"
x#
0$
0%
0&
0'
0(
0)
0*
0+
0,
0-
0.
0/
00
01
02
03
04
05
06
07
08
09
0:
0;
0<
0=
0>
0?
0@
0A
0B
0C
0D
0E
0F
0G
$end
#10
1!
#20
0!
#30
1!
#40
0"
0!
#50
1!
#60
0!
#70
1!
#80
0!
#90
1!
#100
x$
x%
x&
x'
0!
#110
1!
#120
0!
#130
1!
#140
0!
#150
1!
#160
0!
#170
1!
#180
0!
#190
1!
#200
1#
0!
#210
1!
#220
0#
0!
#230
1#
1!
#240
0!
#250
0#
1!
#260
0!
#270
1!
#280
0!
#290
1!
#300
1/
12
16
17
19
1=
1?
1A
1B
1E
1F
1G
z'
z&
z%
z$
x#
0!
#310
1!
#320
0!
#330
1!
#340
0!
#350
1!
#360
0!
#370
1!
#380
0!
#390
1!
#400
0#
1$
1%
1&
1'
0!
#410
1!
#420
0!
#430
1!
#440
0!
#450
1!
#460
0!
#470
1!
#480
0!
#490
1!
#500
1(
1,
10
14
18
1<
1@
1D
z#
0!
#510
1!
#520
0!
#530
1!
#540
0!
#550
1!
#560
0!
#570
1!
#580
0!
#590
1!
#600
1)
1+
1-
1.
15
1:
1;
1>
0#
0/
06
09
0?
0!
